{
  "project_info": {
    "project_number": "897151265840",
    "firebase_url": "https://exchange-9e45d.firebaseio.com",
    "project_id": "exchange-9e45d",
    "storage_bucket": "exchange-9e45d.appspot.com"
  },
  "client": [
    {
      "client_info": {
        "mobilesdk_app_id": "1:897151265840:android:96e0fc796122713a",
        "android_client_info": {
          "package_name": "com.revolut.exchange"
        }
      },
      "oauth_client": [
        {
          "client_id": "897151265840-95i001q6ou98gvrsg3ogo8d4cjo8lcpf.apps.googleusercontent.com",
          "client_type": 1,
          "android_info": {
            "package_name": "com.revolut.exchange",
            "certificate_hash": "364f81e3243bd270c42b6a720c1915da88967a4c"
          }
        },
        {
          "client_id": "897151265840-jc05de5s9hdug2fol14kskc6doa37239.apps.googleusercontent.com",
          "client_type": 3
        }
      ],
      "api_key": [
        {
          "current_key": "AIzaSyBDv5fGHuXtxBPCxhWx3Tdn3HX2ZEnTYWU"
        }
      ],
      "services": {
        "analytics_service": {
          "status": 1
        },
        "appinvite_service": {
          "status": 2,
          "other_platform_oauth_client": [
            {
              "client_id": "897151265840-jc05de5s9hdug2fol14kskc6doa37239.apps.googleusercontent.com",
              "client_type": 3
            }
          ]
        },
        "ads_service": {
          "status": 2
        }
      }
    }
  ],
  "configuration_version": "1"
}